,conformer,E_elec [Eh],ZPVE [Eh],H(T) [Eh],G(T) [Eh],G_solv [Eh],G [Eh],Delta_E [Eh],Delta_G [Eh],Delta_E [kcal/mol],Delta_G [kcal/mol],weight
0,0001,-639.115387359044,0.312755095519668,0.01681293190204508,0.271494302067406,-0.017795383981,-638.8616884409577,0.00032156244299130776,0.0,0.2017834794799069,0.0,0.6524183750658366
1,0000,-639.115708921487,0.31296152255533,0.01668218940001101,0.272090866281164,-0.017474648822,-638.8610927040279,0.0,0.0005957369297675541,0.0,0.3738305674783775,0.3475816249341634
