  14
        -13.66512777
 C         -1.9379448436       -0.1336759301        0.0000041386
 C         -0.5607028778        0.5180748404       -0.0000005184
 C          0.5606910898       -0.5180609660       -0.0000107575
 C          1.9379542941        0.1336581493        0.0000014871
 H         -2.7203108269        0.6218731145        0.0000090803
 H         -2.0642206426       -0.7585360827       -0.8817144657
 H         -2.0642195321       -0.7585461060        0.8817162639
 H         -0.4609120302        1.1556727632       -0.8816216580
 H         -0.4608987661        1.1556404519        0.8816398640
 H          0.4608892046       -1.1556584578        0.8816115355
 H          0.4608980693       -1.1556179618       -0.8816622190
 H          2.0642341901        0.7585953833       -0.8816650271
 H          2.7203540136       -0.6218616153        0.0000290023
 H          2.0642141740        0.7584850594        0.8817249523
  14
        -13.66417744
 C         -1.5705094975       -0.0341024143       -0.5635427815
 C         -0.6720576356        0.3644719659        0.6015200286
 C          0.6720911142       -0.3644876362        0.6015467740
 C          1.5704676364        0.0341192999       -0.5635498352
 H         -2.5387386706        0.4543324064       -0.4778815913
 H         -1.1296260047        0.2550906429       -1.5138391173
 H         -1.7292529197       -1.1105526444       -0.5701502972
 H         -0.4958130862        1.4422820774        0.5713411401
 H         -1.1895622168        0.1409705966        1.5377758769
 H          1.1896154472       -0.1409744193        1.5377892887
 H          0.4958585576       -1.4422920359        0.5713914656
 H          1.7293571232        1.1105552399       -0.5700370413
 H          1.1295980226       -0.2551082611       -1.5138560460
 H          2.5386636342       -0.4543180831       -0.4778506646