,X,Y
0,-10.0,3.624103426936472
1,-9.632107023411372,4.431726117694961
2,-9.264214046822742,2.9785872964452116
3,-8.896321070234114,3.7796243151386393
4,-8.528428093645484,2.1149174489344915
5,-8.160535117056856,5.634655764666011
6,-7.792642140468228,4.311944356705142
7,-7.424749163879599,3.075028844007778
8,-7.05685618729097,4.954746598696274
9,-6.688963210702341,5.3322158238590145
10,-6.321070234113712,6.297621667056501
11,-5.953177257525084,4.516458486126839
12,-5.585284280936455,4.670236601434922
13,-5.217391304347826,6.079681857769636
14,-4.849498327759198,4.976941802743182
15,-4.481605351170569,5.498321889299332
16,-4.11371237458194,5.95046759522781
17,-3.745819397993311,6.199331625416825
18,-3.3779264214046822,7.165018321184586
19,-3.010033444816054,5.34743701497678
20,-2.642140468227425,4.537409216611796
21,-2.2742474916387962,5.990321176343963
22,-1.9063545150501682,6.944895746576736
23,-1.5384615384615383,6.127849139484418
24,-1.1705685618729103,5.9086025448639505
25,-0.8026755852842822,7.037374649546257
26,-0.43478260869565233,7.714594085053624
27,-0.06688963210702425,7.048561999644932
28,0.3010033444816038,8.892865043479198
29,0.6688963210702337,9.554744105017056
30,1.0367892976588617,7.998512810045982
31,1.4046822742474916,7.0995912587940895
32,1.7725752508361197,9.026381370452523
33,2.1404682274247477,7.556999523754734
34,2.5083612040133776,8.52448705550123
35,2.8762541806020057,10.17959240461538
36,3.2441471571906355,10.197385961837112
37,3.6120401337792636,10.727739577217267
38,3.9799331103678917,8.577216044089434
39,4.3478260869565215,10.07248352362882
40,4.71571906354515,10.426713304736124
41,5.083612040133778,7.70856900341434
42,5.4515050167224075,9.360234474217894
43,5.819397993311036,10.162044859361295
44,6.187290969899664,11.34681923106814
45,6.555183946488292,10.598906969695998
46,6.923076923076923,12.557069756671885
47,7.290969899665551,10.168472826026585
48,7.6588628762541795,9.969125530273471
49,8.026755852842808,11.110687889862804
50,8.394648829431436,9.532060028963956
51,8.762541806020067,9.273696530334831
52,9.130434782608695,12.235454346249737
53,9.498327759197323,11.469433657214497
54,9.866220735785951,11.288684357282614
55,10.23411371237458,10.8396161382087
56,10.602006688963208,13.214362145409815
57,10.96989966555184,12.861728844330447
58,11.337792642140467,12.252298990989257
59,11.705685618729095,13.013664574252353
60,12.073578595317723,13.236273298929298
61,12.441471571906352,12.714993217688122
62,12.809364548494983,11.355686114226119
63,13.177257525083611,12.02684312509382
64,13.54515050167224,15.077196981922372
65,13.913043478260867,14.442948426050327
66,14.280936454849495,12.871760760768089
67,14.648829431438127,13.470353063619843
68,15.016722408026755,13.972075882811858
69,15.384615384615383,13.106836722081649
70,15.752508361204011,13.275934723107692
71,16.12040133779264,14.065822054248253
72,16.48829431438127,13.923908613531717
73,16.8561872909699,15.204775795565801
74,17.224080267558527,16.15199805222222
75,17.591973244147155,14.643857791189843
76,17.959866220735783,16.901113548602975
77,18.32775919732441,15.22392959849381
78,18.695652173913043,16.437070720639657
79,19.06354515050167,15.607100883140294
80,19.4314381270903,15.922569287774847
81,19.799331103678927,15.169886424224766
82,20.167224080267555,15.857161289282997
83,20.535117056856187,14.537919674303044
84,20.903010033444815,17.338865779721935
85,21.270903010033443,17.65097723930836
86,21.63879598662207,15.966185757241014
87,22.0066889632107,16.037839192329425
88,22.374581939799327,16.73883094835495
89,22.742474916387955,17.265502735700856
90,23.110367892976583,17.05267423063402
91,23.47826086956522,17.226773241573316
92,23.846153846153847,19.63628585491651
93,24.214046822742475,17.260745872924506
94,24.581939799331103,18.253880718525213
95,24.94983277591973,17.111444461502636
96,25.31772575250836,17.496720890347305
97,25.685618729096987,18.558718413803774
98,26.053511705685615,20.430630241283946
99,26.421404682274243,18.261081407559228
100,26.78929765886287,19.077602234186635
101,27.1571906354515,19.947764129480056
102,27.525083612040135,18.00997994476417
103,27.892976588628763,20.938343303095465
104,28.26086956521739,20.521697152660447
105,28.62876254180602,21.05461880277289
106,28.996655518394647,19.953807088999614
107,29.364548494983275,21.821113630338687
108,29.732441471571903,20.7863667980788
109,30.10033444816053,20.738652729854152
110,30.46822742474916,20.406755700812717
111,30.836120401337787,21.27456999959679
112,31.204013377926415,21.57302025320034
113,31.57190635451505,21.909997764734054
114,31.93979933110368,19.951851546471474
115,32.30769230769231,22.095086167164705
116,32.675585284280935,20.828976451161616
117,33.04347826086956,21.743901742265297
118,33.41137123745819,21.884430582147157
119,33.77926421404682,22.37719765798686
120,34.14715719063545,21.518574655405796
121,34.515050167224075,22.051856213103232
122,34.8829431438127,23.617551979726848
123,35.25083612040134,22.500242301236753
124,35.618729096989966,20.196899180792848
125,35.986622073578594,23.438622872448803
126,36.35451505016722,21.509280428270788
127,36.72240802675585,23.414608162878366
128,37.09030100334448,25.372348389450778
129,37.45819397993311,23.87871911569433
130,37.826086956521735,24.202275613767885
131,38.19397993311036,23.738778969606148
132,38.56187290969899,25.124327185203995
133,38.92976588628762,23.425038317208834
134,39.297658862876254,22.6494898233145
135,39.66555183946488,24.391122838269105
136,40.03344481605351,25.186137978673862
137,40.40133779264214,26.370182414181098
138,40.76923076923077,26.175386521595026
139,41.137123745819395,25.927939700954767
140,41.50501672240802,25.33519867022886
141,41.87290969899665,25.35510537245329
142,42.24080267558528,25.597379330205726
143,42.60869565217391,27.38845728275142
144,42.97658862876254,24.818653472207163
145,43.34448160535117,27.2836271178163
146,43.7123745819398,27.286823936539086
147,44.080267558528426,26.738305567748764
148,44.448160535117054,27.684805583642188
149,44.81605351170568,29.785297495566923
150,45.18394648829431,26.855588246369987
151,45.55183946488294,27.05879730337578
152,45.91973244147157,26.388635066918933
153,46.287625418060195,25.620762401550827
154,46.65551839464882,27.58481358204674
155,47.02341137123746,28.41688171604349
156,47.391304347826086,29.062863399208357
157,47.759197324414714,29.008173576988742
158,48.12709030100334,28.125435822884075
159,48.49498327759197,28.761330891888033
160,48.8628762541806,28.214578602560767
161,49.230769230769226,29.833292787886716
162,49.598662207357854,27.058449905499103
163,49.96655518394648,28.754158684728317
164,50.33444816053511,28.861005007810185
165,50.70234113712374,28.513119718911494
166,51.070234113712374,28.38373881321747
167,51.438127090301,30.325036011189024
168,51.80602006688963,29.69746093357027
169,52.17391304347826,29.330615540171802
170,52.541806020066886,30.692290242463415
171,52.909698996655514,27.56822304958205
172,53.27759197324414,30.663846100441486
173,53.64548494983277,29.871730420603843
174,54.0133779264214,29.89937409388025
175,54.381270903010034,30.993417197974864
176,54.749163879598655,30.163723416860428
177,55.11705685618729,30.466057899998635
178,55.48494983277591,30.92921279052215
179,55.852842809364546,30.795850210993564
180,56.22073578595317,31.84370454668151
181,56.5886287625418,32.7805807614967
182,56.95652173913044,32.49425182631204
183,57.32441471571906,30.88080568043371
184,57.69230769230769,31.665098081789896
185,58.060200668896314,31.97502671815573
186,58.42809364548495,32.79980227398481
187,58.79598662207357,33.58436387457424
188,59.163879598662206,33.78861581229573
189,59.53177257525083,33.250682605478296
190,59.89966555183946,31.74622229480687
191,60.26755852842808,32.691489789818604
192,60.63545150501672,34.07867703738208
193,61.00334448160535,34.417216253603485
194,61.371237458193974,33.064907157822574
195,61.73913043478261,33.42439178120116
196,62.10702341137123,35.36935599358919
197,62.474916387959865,33.96707334811384
198,62.842809364548486,35.68100657802539
199,63.21070234113712,34.72106457167364
200,63.57859531772574,34.21801836861608
201,63.94648829431438,34.32155078045433
202,64.314381270903,36.528184053131966
203,64.68227424749163,33.86687571727182
204,65.05016722408027,33.68016397252308
205,65.41806020066889,35.70698694791516
206,65.78595317725753,35.62804583768682
207,66.15384615384615,37.246470185848835
208,66.52173913043478,35.211003523851126
209,66.8896321070234,37.25779346241497
210,67.25752508361204,37.911160022964175
211,67.62541806020066,35.260083466004644
212,67.9933110367893,36.74568530956272
213,68.36120401337791,35.7778028765591
214,68.72909698996655,37.04175401610558
215,69.09698996655518,37.37995098533438
216,69.4648829431438,36.16548752873882
217,69.83277591973244,36.795681782976935
218,70.20066889632106,37.304148653878826
219,70.5685618729097,37.12246269942153
220,70.93645484949832,36.25571196690043
221,71.30434782608695,37.19640536335421
222,71.67224080267557,39.27060353033898
223,72.04013377926421,38.04406570400018
224,72.40802675585283,39.175699307068754
225,72.77591973244147,37.55114175898858
226,73.1438127090301,39.104165053600674
227,73.51170568561872,37.53313996981819
228,73.87959866220736,37.88484408257389
229,74.24749163879598,39.43643923657912
230,74.61538461538461,38.16404466741192
231,74.98327759197323,40.663720060524135
232,75.35117056856187,40.03873991515526
233,75.71906354515049,39.507426892207356
234,76.08695652173913,40.0470866689605
235,76.45484949832776,40.50307214169262
236,76.82274247491638,40.07391888717874
237,77.19063545150502,41.75195612877789
238,77.55852842809364,40.769610420080674
239,77.92642140468227,39.89925959758364
240,78.2943143812709,41.490797689055704
241,78.66220735785953,39.20227041597843
242,79.03010033444815,40.716323044402394
243,79.39799331103679,40.251658094557264
244,79.7658862876254,39.606978488350514
245,80.13377926421404,42.164478829591474
246,80.50167224080268,42.04013872770529
247,80.8695652173913,40.7145649177182
248,81.23745819397993,43.51959277049173
249,81.60535117056855,43.12181795783476
250,81.97324414715719,42.99103773958711
251,82.34113712374581,44.18282305118258
252,82.70903010033445,42.96919434949029
253,83.07692307692307,42.52525024838487
254,83.4448160535117,44.5127207256506
255,83.81270903010032,42.936754661988424
256,84.18060200668896,43.43994721228582
257,84.54849498327759,43.12146020455402
258,84.91638795986621,43.08489375411789
259,85.28428093645485,43.34038725016674
260,85.65217391304347,43.550196951335884
261,86.0200668896321,44.05672813442391
262,86.38795986622073,44.88104130580148
263,86.75585284280936,42.61120626861925
264,87.12374581939798,45.27809433248335
265,87.49163879598662,45.3203628111411
266,87.85953177257524,44.6328798444002
267,88.22742474916387,46.45643878055399
268,88.59531772575251,45.660439426734015
269,88.96321070234113,44.46920943974977
270,89.33110367892976,46.56857382451907
271,89.69899665551839,46.9769246849267
272,90.06688963210702,44.276211704497776
273,90.43478260869564,45.520613761385945
274,90.80267558528428,46.1164058923547
275,91.1705685618729,45.96627506857802
276,91.53846153846153,44.061195242111935
277,91.90635451505015,46.15845210945954
278,92.27424749163879,46.999544762567496
279,92.64214046822742,47.23233802195575
280,93.01003344481605,47.71832594582079
281,93.37792642140468,47.545717836077
282,93.7458193979933,46.83357759647107
283,94.11371237458194,48.46765664271657
284,94.48160535117056,48.463615668947696
285,94.84949832775919,46.69466420877091
286,95.21739130434781,48.0840071280155
287,95.58528428093645,49.289066880050285
288,95.95317725752508,46.87488631867675
289,96.3210702341137,48.93650899750302
290,96.68896321070234,47.954267278441314
291,97.05685618729096,50.50429047481012
292,97.4247491638796,49.02870515979982
293,97.79264214046822,49.205637067115106
294,98.16053511705685,49.35563887479022
295,98.52842809364547,50.27412046681047
296,98.89632107023411,49.49717489045272
297,99.26421404682273,50.11369529829833
298,99.63210702341136,50.231374561698026
299,100.0,50.59537686437462
